MyLabJournal - Session 6 - Challenge - Company Segmentation
…
We will be using stock prices in this analysis. Although some of you know already how to use an API to retrieve stock prices I obtained the stock prices for every stock in the S&P 500 index for you already. The files are saved in the session_6_data directory.

We can read in the stock prices. The data is 1.2M observations. The most important columns for our analysis are:

symbol: The stock ticker symbol that corresponds to a company’s stock price

date: The timestamp relating the symbol to the share price at that point in time

adjusted: The stock price, adjusted for any splits and dividends (we use this when analyzing stock data over long periods of time)

# STOCK PRICES
sp_500_prices_tbl <- read_rds(".\\..\\Business Decisions with Machine Learning\\sp_500_prices_tbl.rds")
sp_500_prices_tbl

# A tibble: 1,225,765 × 8
   symbol date        open  high   low close   volume adjusted
   <chr>  <date>     <dbl> <dbl> <dbl> <dbl>    <dbl>    <dbl>
 1 MSFT   2009-01-02  19.5  20.4  19.4  20.3 50084000     15.9
 2 MSFT   2009-01-05  20.2  20.7  20.1  20.5 61475200     16.0
 3 MSFT   2009-01-06  20.8  21    20.6  20.8 58083400     16.2
 4 MSFT   2009-01-07  20.2  20.3  19.5  19.5 72709900     15.2
 5 MSFT   2009-01-08  19.6  20.2  19.5  20.1 70255400     15.7
 6 MSFT   2009-01-09  20.2  20.3  19.4  19.5 49815300     15.2
 7 MSFT   2009-01-12  19.7  19.8  19.3  19.5 52163500     15.2
 8 MSFT   2009-01-13  19.5  20.0  19.5  19.8 65843500     15.5
 9 MSFT   2009-01-14  19.5  19.7  19.0  19.1 80257500     14.9
10 MSFT   2009-01-15  19.1  19.3  18.5  19.2 96169800     15.0
# ℹ 1,225,755 more rows
…
# Apply your data transformation skills!
sp_500_daily_returns_tbl <- sp_500_prices_tbl[, c("symbol", "date", "adjusted")]
sp_500_daily_returns_tbl <- filter(sp_500_daily_returns_tbl, year(as.Date(sp_500_daily_returns_tbl$date)) >= 2018)
sp_split <- split(sp_500_daily_returns_tbl, sp_500_daily_returns_tbl$symbol)
for (df_name in names(sp_split)) {
  sp_split[[df_name]] <- sp_split[[df_name]] %>% mutate(lag_adjusted = lag(adjusted)) %>% na.omit()
  sp_split[[df_name]] <- sp_split[[df_name]] %>% mutate(pct_return = (adjusted - lag_adjusted)/lag_adjusted)
}
sp_500_daily_returns_tbl <- bind_rows(sp_split)
sp_500_daily_returns_tbl <- select(sp_500_daily_returns_tbl, symbol, date, pct_return)

# Output: sp_500_daily_returns_tbl
sp_500_daily_returns_tbl

# A tibble: 141,340 × 3
   symbol date       pct_return
   <chr>  <date>          <dbl>
 1 A      2018-01-03   0.0254  
 2 A      2018-01-04  -0.00750 
 3 A      2018-01-05   0.0160  
 4 A      2018-01-08   0.00215 
 5 A      2018-01-09   0.0246  
 6 A      2018-01-10  -0.0137  
 7 A      2018-01-11   0.000141
 8 A      2018-01-12   0.0131  
 9 A      2018-01-16  -0.00697 
10 A      2018-01-17   0.0117  
# ℹ 141,330 more rows

Step 2 - Convert to User-Item Format

The next step is to convert to a user-item format with the symbol in the first column and every other column the value of the daily returns (pct_return) for every stock at each date.

We’re going to import the correct results first (just in case you were not able to complete the last step).

sp_500_daily_returns_tbl <- read_rds("sp_500_daily_returns_tbl.rds")
sp_500_daily_returns_tbl

# A tibble: 141,340 × 3
   symbol date       pct_return
   <chr>  <date>          <dbl>
 1 MSFT   2018-01-03   0.00465 
 2 MSFT   2018-01-04   0.00880 
 3 MSFT   2018-01-05   0.0124  
 4 MSFT   2018-01-08   0.00102 
 5 MSFT   2018-01-09  -0.000680
 6 MSFT   2018-01-10  -0.00453 
 7 MSFT   2018-01-11   0.00296 
 8 MSFT   2018-01-12   0.0173  
 9 MSFT   2018-01-16  -0.0140  
10 MSFT   2018-01-17   0.0203  
# ℹ 141,330 more rows

Now that we have the daily returns (percentage change from one day to the next), we can convert to a user-item format. The user in this case is the symbol (company), and the item in this case is the pct_return at each date.

Spread the date column to get the values as percentage returns. Make sure to fill an NA values with zeros.

Save the result as stock_date_matrix_tbl

# Convert to User-Item Format
stock_date_matrix_tbl <- sp_500_daily_returns_tbl %>% spread(date, pct_return, fill = 0)
  
# Output: stock_date_matrix_tbl
stock_date_matrix_tbl

# A tibble: 502 × 283
   symbol `2018-01-03` `2018-01-04` `2018-01-05` `2018-01-08` `2018-01-09`
   <chr>         <dbl>        <dbl>        <dbl>        <dbl>        <dbl>
 1 A          0.0254       -0.00750     0.0160        0.00215     0.0246  
 2 AAL       -0.0123        0.00630    -0.000380     -0.00988    -0.000959
 3 AAP        0.00905       0.0369      0.0106       -0.00704    -0.00808 
 4 AAPL      -0.000174      0.00465     0.0114       -0.00371    -0.000115
 5 ABBV       0.0156       -0.00570     0.0174       -0.0160      0.00754 
 6 ABC        0.00372      -0.00222     0.0121        0.0166      0.00640 
 7 ABMD       0.0173        0.0175      0.0154        0.0271      0.00943 
 8 ABT        0.00221      -0.00170     0.00289      -0.00288     0.00170 
 9 ACN        0.00462       0.0118      0.00825       0.00799     0.00333 
10 ADBE       0.0188        0.0120      0.0116       -0.00162     0.00897 
# ℹ 492 more rows
# ℹ 277 more variables: `2018-01-10` <dbl>, `2018-01-11` <dbl>,
#   `2018-01-12` <dbl>, `2018-01-16` <dbl>, `2018-01-17` <dbl>,
#   `2018-01-18` <dbl>, `2018-01-19` <dbl>, `2018-01-22` <dbl>,
#   `2018-01-23` <dbl>, `2018-01-24` <dbl>, `2018-01-25` <dbl>,
#   `2018-01-26` <dbl>, `2018-01-29` <dbl>, `2018-01-30` <dbl>,
#   `2018-01-31` <dbl>, `2018-02-01` <dbl>, `2018-02-02` <dbl>, …
…
Add a column named k_means with the kmeans_mapper() output. Use mutate() to add the column and map() to map centers to the kmeans_mapper() function.

Add a column named glance with the glance() output. Use mutate() and map() again to iterate over the column of k_means.

Save the output as k_means_mapped_tbl

# Use purrr to map
k_means_mapped_tbl <- tibble(centers = 1:30)
k_means_mapped_tbl <- k_means_mapped_tbl %>% mutate(k_means = map(centers, kmeans_mapper))
k_means_mapped_tbl <- k_means_mapped_tbl %>% mutate(glance = map(k_means, glance))
# Output: k_means_mapped_tbl 
k_means_mapped_tbl

# A tibble: 30 × 3
   centers k_means  glance          
     <int> <list>   <list>          
 1       1 <kmeans> <tibble [1 × 4]>
 2       2 <kmeans> <tibble [1 × 4]>
 3       3 <kmeans> <tibble [1 × 4]>
 4       4 <kmeans> <tibble [1 × 4]>
 5       5 <kmeans> <tibble [1 × 4]>
 6       6 <kmeans> <tibble [1 × 4]>
 7       7 <kmeans> <tibble [1 × 4]>
 8       8 <kmeans> <tibble [1 × 4]>
 9       9 <kmeans> <tibble [1 × 4]>
10      10 <kmeans> <tibble [1 × 4]>
# ℹ 20 more rows
…
Convert from a matrix data type to a tibble with as_tibble()

Bind the columns of the umap tibble with the symbol column from the stock_date_matrix_tbl.

Save the results as umap_results_tbl.

# Convert umap results to tibble with symbols
layout <- umap_results$layout
layout_tibble <- layout %>% as_tibble()
umap_results_tbl <- layout_tibble %>% bind_cols(stock_date_matrix_tbl$symbol)

# Output: umap_results_tbl
umap_results_tbl

# A tibble: 502 × 3
        V1      V2 ...3 
     <dbl>   <dbl> <chr>
 1 -1.88    0.253  A    
 2  0.0300  1.40   AAL  
 3  0.258  -1.01   AAP  
 4 -2.89   -0.324  AAPL 
 5  0.601   0.0962 ABBV 
 6  1.02   -0.0906 ABC  
 7 -2.89   -1.02   ABMD 
 8 -1.06   -0.198  ABT  
 9 -1.87   -0.265  ACN  
10 -3.05   -0.864  ADBE 
# ℹ 492 more rows
…
